[gd_scene load_steps=6 format=3 uid="uid://dc0efjm3op8tp"]

[ext_resource type="ArrayMesh" uid="uid://bkns37aqrgscd" path="res://assets/meshes/blender/slope_block.res" id="1_yn8yd"]
[ext_resource type="Material" uid="uid://d2wtgq8rictwf" path="res://assets/meshlibs/materials/roof_red_slope.tres" id="2_ecli1"]
[ext_resource type="Material" uid="uid://drvvgg0t8ospy" path="res://assets/meshlibs/materials/white_stone_wall.tres" id="3_7f4xn"]
[ext_resource type="Material" uid="uid://dijd8ib81o418" path="res://assets/meshlibs/materials/white_stone_ground.tres" id="4_25w65"]

[sub_resource type="ConvexPolygonShape3D" id="ConvexPolygonShape3D_hw4ri"]
points = PackedVector3Array(0.5, -0.5, 0.5, -0.5, -0.5, 0.5, -0.5, -0.5, -0.5, 0.5, -0.5, -0.5, 0.5, 0.5, 0.5, -0.5, 0.5, 0.5)

[node name="BlockTemplate" type="MeshInstance3D"]
mesh = ExtResource("1_yn8yd")
surface_material_override/0 = ExtResource("2_ecli1")
surface_material_override/1 = ExtResource("3_7f4xn")
surface_material_override/2 = ExtResource("4_25w65")

[node name="StaticBody3D" type="StaticBody3D" parent="."]

[node name="CollisionShape3D" type="CollisionShape3D" parent="StaticBody3D"]
shape = SubResource("ConvexPolygonShape3D_hw4ri")
